…
``` r
gapminder %>%
  group_by(year)%>%
  filter(continent=="Europe" & gdpPercap<gdpPercap[country=="Turkey"])%>%
  distinct(country)
```

    ## Source: local data frame [26 x 2]
    ## Groups: year [12]
    ## 
    ##    country  year
    ##     <fctr> <int>
    ## 1  Albania  1952
    ## 2  Albania  1957
    ## 3  Albania  1962
    ## 4  Albania  1967
    ## 5  Albania  1972
    ## 6  Albania  1977
    ## 7  Albania  1982
    ## 8  Albania  1987
    ## 9  Albania  1992
    ## 10 Albania  1997
    ## # ... with 16 more rows
…
