…
Now, lets look at the fitted result table. 

```r
fitted_result
```

```
## # A tibble: 140 x 7
## # Groups:   country, continent [140]
##        country continent  intercept     slope Res_Err_Std Res_Err_Variance
##         <fctr>    <fctr>      <dbl>     <dbl>       <dbl>            <dbl>
##  1 Afghanistan      Asia  -507.5343 0.2753287   1.2227880       1.49521045
##  2     Albania    Europe  -594.0725 0.3346832   1.9830615       3.93253302
##  3     Algeria    Africa -1067.8590 0.5692797   1.3230064       1.75034589
##  4      Angola    Africa  -376.5048 0.2093399   1.4070091       1.97967471
##  5   Argentina  Americas  -389.6063 0.2317084   0.2923072       0.08544349
##  6     Austria    Europe  -405.9205 0.2419923   0.4074094       0.16598240
##  7     Bahrain      Asia  -859.8258 0.4675077   1.6395865       2.68824402
##  8  Bangladesh      Asia  -936.2158 0.4981308   0.9766908       0.95392498
##  9     Belgium    Europe  -340.2412 0.2090846   0.2929025       0.08579187
## 10       Benin    Africa  -612.8340 0.3342329   1.1746910       1.37989891
## # ... with 130 more rows, and 1 more variables: R_squared <dbl>
```
…
