…
Now, Lets create the nested data frame from gapminder dataset


```r
(gap_nested <- gapminder %>% 
   group_by(continent, country) %>% 
   nest())
```

```
## # A tibble: 142 x 3
##    continent     country              data
##       <fctr>      <fctr>            <list>
##  1      Asia Afghanistan <tibble [12 x 4]>
##  2    Europe     Albania <tibble [12 x 4]>
##  3    Africa     Algeria <tibble [12 x 4]>
##  4    Africa      Angola <tibble [12 x 4]>
##  5  Americas   Argentina <tibble [12 x 4]>
##  6   Oceania   Australia <tibble [12 x 4]>
##  7    Europe     Austria <tibble [12 x 4]>
##  8      Asia     Bahrain <tibble [12 x 4]>
##  9      Asia  Bangladesh <tibble [12 x 4]>
## 10    Europe     Belgium <tibble [12 x 4]>
## # ... with 132 more rows
```
…
Lets apply the linear regression function we had defined earlier to the first entry of data in gap_nested data frame. 

```r
le_lin_fit(gap_nested[[1, "data"]])
```

In order to get this for the entire column, we need to use map and mutate function

```r
(gap_nested <- gap_nested %>% 
   mutate(fit = map(data, le_rlm_fit)))
```

```
## # A tibble: 142 x 4
##    continent     country              data       fit
##       <fctr>      <fctr>            <list>    <list>
##  1      Asia Afghanistan <tibble [12 x 4]> <S3: rlm>
##  2    Europe     Albania <tibble [12 x 4]> <S3: rlm>
##  3    Africa     Algeria <tibble [12 x 4]> <S3: rlm>
##  4    Africa      Angola <tibble [12 x 4]> <S3: rlm>
##  5  Americas   Argentina <tibble [12 x 4]> <S3: rlm>
##  6   Oceania   Australia <tibble [12 x 4]> <S3: rlm>
##  7    Europe     Austria <tibble [12 x 4]> <S3: rlm>
##  8      Asia     Bahrain <tibble [12 x 4]> <S3: rlm>
##  9      Asia  Bangladesh <tibble [12 x 4]> <S3: rlm>
## 10    Europe     Belgium <tibble [12 x 4]> <S3: rlm>
## # ... with 132 more rows
```
…
Now lets simplify to the normal data frame by keeping necessary variables and using unnest().

```r
(gap_coefs <- 
   gap_nested %>% 
      dplyr::select(continent,country,augment) %>% 
      unnest(augment))
```

```
## # A tibble: 1,704 x 9
##    continent     country lifeExp I.year...offset.  .fitted   .se.fit
##       <fctr>      <fctr>   <dbl>            <dbl>    <dbl>     <dbl>
##  1      Asia Afghanistan  28.801                0 29.90729 0.8285128
##  2      Asia Afghanistan  30.332                5 31.28394 0.7236318
##  3      Asia Afghanistan  31.997               10 32.66058 0.6272244
##  4      Asia Afghanistan  34.020               15 34.03722 0.5438163
##  5      Asia Afghanistan  36.088               20 35.41387 0.4802290
##  6      Asia Afghanistan  38.438               25 36.79051 0.4450414
##  7      Asia Afghanistan  39.854               30 38.16716 0.4450414
##  8      Asia Afghanistan  40.822               35 39.54380 0.4802290
##  9      Asia Afghanistan  41.674               40 40.92044 0.5438163
## 10      Asia Afghanistan  41.763               45 42.29709 0.6272244
## # ... with 1,694 more rows, and 3 more variables: .resid <dbl>,
## #   .hat <dbl>, .sigma <dbl>
```
…
